0.50 0.22 0.12 1.00
1.00 0.14 0.21 1.00
1.50 0.02 0.25 1.00
2.00 -0.10 0.23 1.00
2.50 -0.20 0.15 1.00
3.00 -0.25 0.04 1.00
3.50 -0.23 -0.09 1.00
4.00 -0.16 -0.19 1.00
4.50 -0.05 -0.24 1.00
5.00 0.07 -0.24 1.00
5.50 0.18 -0.18 1.00
6.00 0.24 -0.07 1.00
6.50 0.24 0.05 1.00
7.00 0.19 0.16 1.00
7.50 0.09 0.23 1.00
8.00 -0.04 0.25 1.00
8.50 -0.15 0.20 1.00
9.00 -0.23 0.10 1.00
9.50 -0.25 -0.02 1.00
10.00 -0.21 -0.14 1.00
10.50 -0.12 -0.22 1.00
11.00 0.00 -0.25 1.00
11.50 0.12 -0.22 1.00
12.00 0.21 -0.13 1.00
12.50 0.25 -0.02 1.00
13.00 0.23 0.11 1.00
13.50 0.15 0.20 1.00
14.00 0.03 0.25 1.00
14.50 -0.09 0.23 1.00
15.00 -0.19 0.16 1.00
15.50 -0.24 0.05 1.00
16.00 -0.24 -0.07 1.00
16.50 -0.18 -0.18 1.00
17.00 -0.07 -0.24 1.00
17.50 0.05 -0.24 1.00
18.00 0.17 -0.19 1.00
18.50 0.23 -0.09 1.00
19.00 0.25 0.04 1.00
19.50 0.20 0.15 1.00
20.00 0.10 0.23 1.00
20.50 -0.02 0.25 1.00
21.00 -0.14 0.21 1.00
21.50 -0.22 0.12 1.00
22.00 -0.25 -0.00 1.00
22.50 -0.22 -0.12 1.00
23.00 -0.13 -0.21 1.00
23.50 -0.02 -0.25 1.00
24.00 0.11 -0.23 1.00
24.50 0.20 -0.15 1.00
25.00 0.25 -0.03 1.00
25.50 0.23 0.09 1.00
26.00 0.16 0.19 1.00
26.50 0.05 0.24 1.00
27.00 -0.07 0.24 1.00
27.50 -0.18 0.17 1.00
28.00 -0.24 0.07 1.00
28.50 -0.24 -0.06 1.00
29.00 -0.19 -0.17 1.00
29.50 -0.08 -0.24 1.00
30.00 0.04 -0.25 1.00
30.50 0.15 -0.20 1.00
31.00 0.23 -0.10 1.00
31.50 0.25 0.02 1.00
32.00 0.21 0.14 1.00
32.50 0.12 0.22 1.00
33.00 -0.00 0.25 1.00
33.50 -0.12 0.22 1.00
34.00 -0.21 0.13 1.00
34.50 -0.25 0.01 1.00
35.00 -0.23 -0.11 1.00
35.50 -0.15 -0.20 1.00
36.00 -0.03 -0.25 1.00
36.50 0.09 -0.23 1.00
37.00 0.19 -0.16 1.00
37.50 0.25 -0.05 1.00
38.00 0.24 0.07 1.00
38.50 0.17 0.18 1.00
39.00 0.07 0.24 1.00
39.50 -0.06 0.24 1.00
40.00 -0.17 0.19 1.00
40.50 -0.24 0.08 1.00
41.00 -0.25 -0.04 1.00
41.50 -0.20 -0.15 1.00
42.00 -0.10 -0.23 1.00
42.50 0.02 -0.25 1.00
43.00 0.14 -0.21 1.00
43.50 0.22 -0.12 1.00
44.00 0.25 0.00 1.00
44.50 0.22 0.12 1.00
45.00 0.13 0.21 1.00
50.00 0.24 -0.07 1.00
55.00 0.01 -0.25 1.00
60.00 -0.24 -0.08 1.00
65.00 -0.14 0.21 1.00
70.00 0.16 0.19 1.00
75.00 0.23 -0.10 1.00
80.00 -0.03 -0.25 1.00
85.00 -0.25 -0.04 1.00
90.00 -0.11 0.22 1.00
95.00 0.18 0.17 1.00
100.00 0.22 -0.13 1.00
105.00 -0.06 -0.24 1.00
110.00 -0.25 -0.01 1.00
115.00 -0.08 0.24 1.00
120.00 0.20 0.15 1.00
125.00 0.20 -0.15 1.00
130.00 -0.09 -0.23 1.00
135.00 -0.25 0.02 1.00
140.00 -0.05 0.25 1.00
145.00 0.22 0.12 1.00
150.00 0.17 -0.18 1.00
155.00 -0.12 -0.22 1.00
155.50 -0.00 -0.25 1.00
156.00 0.12 -0.22 1.00
156.50 0.21 -0.14 1.00
157.00 0.25 -0.02 1.00
157.50 0.23 0.10 1.00
158.00 0.15 0.20 1.00
158.50 0.04 0.25 1.00
159.00 -0.09 0.23 1.00
159.50 -0.19 0.17 1.00
160.00 -0.24 0.05 1.00
160.50 -0.24 -0.07 1.00
161.00 -0.18 -0.18 1.00
161.50 -0.07 -0.24 1.00
162.00 0.05 -0.24 1.00
162.50 0.16 -0.19 1.00
163.00 0.23 -0.09 1.00
163.50 0.25 0.03 1.00
164.00 0.20 0.15 1.00
164.50 0.11 0.23 1.00
165.00 -0.02 0.25 1.00
165.50 -0.13 0.21 1.00
166.00 -0.22 0.12 1.00
166.50 -0.25 0.00 1.00
167.00 -0.22 -0.12 1.00
167.50 -0.14 -0.21 1.00
168.00 -0.02 -0.25 1.00
168.50 0.10 -0.23 1.00
169.00 0.20 -0.15 1.00
169.50 0.25 -0.04 1.00
170.00 0.23 0.09 1.00
170.50 0.16 0.19 1.00
171.00 0.05 0.24 1.00
171.50 -0.07 0.24 1.00
172.00 -0.18 0.18 1.00
172.50 -0.24 0.07 1.00
173.00 -0.24 -0.05 1.00
173.50 -0.19 -0.16 1.00
174.00 -0.09 -0.23 1.00
174.50 0.04 -0.25 1.00
175.00 0.15 -0.20 1.00
175.50 0.23 -0.10 1.00
176.00 0.25 0.02 1.00
176.50 0.21 0.14 1.00
177.00 0.12 0.22 1.00
177.50 -0.00 0.25 1.00
178.00 -0.12 0.22 1.00
178.50 -0.21 0.14 1.00
179.00 -0.25 0.02 1.00
179.50 -0.23 -0.10 1.00
180.00 -0.15 -0.20 1.00
180.50 -0.04 -0.25 1.00
181.00 0.09 -0.23 1.00
181.50 0.19 -0.16 1.00
182.00 0.24 -0.05 1.00
182.50 0.24 0.07 1.00
183.00 0.18 0.18 1.00
183.50 0.07 0.24 1.00
184.00 -0.05 0.24 1.00
184.50 -0.16 0.19 1.00
185.00 -0.23 0.09 1.00
185.50 -0.25 -0.04 1.00
186.00 -0.20 -0.15 1.00
186.50 -0.10 -0.23 1.00
187.00 0.02 -0.25 1.00
187.50 0.14 -0.21 1.00
188.00 0.22 -0.12 1.00
188.50 0.25 0.00 1.00
189.00 0.22 0.12 1.00
189.50 0.13 0.21 1.00
190.00 0.02 0.25 1.00
190.50 -0.11 0.23 1.00
191.00 -0.20 0.15 1.00
191.50 -0.25 0.03 1.00
192.00 -0.23 -0.09 1.00
192.50 -0.16 -0.19 1.00
193.00 -0.05 -0.24 1.00
193.50 0.07 -0.24 1.00
194.00 0.18 -0.18 1.00
194.50 0.24 -0.07 1.00
195.00 0.24 0.05 1.00
195.50 0.19 0.17 1.00
196.00 0.09 0.23 1.00
196.50 -0.04 0.25 1.00
197.00 -0.15 0.20 1.00
197.50 -0.23 0.10 1.00
198.00 -0.25 -0.02 1.00
198.50 -0.21 -0.14 1.00
199.00 -0.12 -0.22 1.00
199.50 0.00 -0.25 1.00
200.00 0.12 -0.22 1.00
